{
  "_version": "1.4.0",
  "authzGroups" : {
    "metadata": {
      "serial": 1
    },
    "groupNames": {
      "val": "Validator",
      "ins": "Inspector",
      "tvm": "Ticket vending machine",
      "pos": "Point of sale"
    }
  }
}  
